{
  "project_info": {
    "project_number": "860076109218",
    "firebase_url": "https://mydemos-fc5a9.firebaseio.com",
    "project_id": "mydemos-fc5a9",
    "storage_bucket": "mydemos-fc5a9.appspot.com"
  },
  "client": [
    {
      "client_info": {
        "mobilesdk_app_id": "1:860076109218:android:c16bc00f83c2d3e1",
        "android_client_info": {
          "package_name": "com.example.myeventmanager"
        }
      },
      "oauth_client": [
        {
          "client_id": "860076109218-m1okea0lsgp76ho8had8ktdpljttb7u0.apps.googleusercontent.com",
          "client_type": 1,
          "android_info": {
            "package_name": "com.example.myeventmanager",
            "certificate_hash": "18faf20b137861160d71b7a3438fdaca7f4724b1"
          }
        },
        {
          "client_id": "860076109218-qnu02i0un97k46rbgtamgk2vmkomqeqm.apps.googleusercontent.com",
          "client_type": 1,
          "android_info": {
            "package_name": "com.example.myeventmanager",
            "certificate_hash": "c2d4bef8868494c3a8251b064c08fd1bc8b2a3b4"
          }
        },
        {
          "client_id": "860076109218-qkhu29t8qrv2cgobkugpdkn7r9k8gbq5.apps.googleusercontent.com",
          "client_type": 3
        }
      ],
      "api_key": [
        {
          "current_key": "AIzaSyAEjHHxJGUQgVH4Q1cyjlp0-sL6N6ANEQU"
        }
      ],
      "services": {
        "analytics_service": {
          "status": 1
        },
        "appinvite_service": {
          "status": 2,
          "other_platform_oauth_client": [
            {
              "client_id": "860076109218-gtkogopt3l0ribrv0aionglrvkmvaqli.apps.googleusercontent.com",
              "client_type": 3
            }
          ]
        },
        "ads_service": {
          "status": 2
        }
      }
    }
  ],
  "configuration_version": "1"
}